…
  tibble(
    beta1_hat = ls_fit[[2,2]],
    p_value = ls_fit[[2,5]]
  )
}


sim_results = 
  rerun(10000, sim_regression(beta1=0)) %>% 
  bind_rows() 

sim_results
```

    ## # A tibble: 10,000 x 2
    ##    beta1_hat p_value
    ##        <dbl>   <dbl>
    ##  1    -2.44   0.0895
    ##  2    -0.366  0.769 
    ##  3     2.10   0.0917
    ##  4    -0.963  0.431 
    ##  5     1.61   0.192 
    ##  6     0.213  0.880 
    ##  7    -1.99   0.219 
    ##  8     2.15   0.252 
    ##  9     0.421  0.773 
    ## 10     0.685  0.532 
    ## # … with 9,990 more rows
…
